{
	"name": {
        "message": "Spot Shopping - Coupon e offerte"
    },
	"short_name": {
        "message": "Spot Shopping - Coupon e offerte"
    },
    "description": {
        "message": "Non pagare in eccesso per gli acquisti. Spot Shopping trova automaticamente i codici coupon quando acquisti online!"
    }
}